{
	"source": {
		"filename": "./data/crowd2.mp4"
	},
	"detector": {
		"minBlobPxSize": 600,
		"maxBlobPxSize": 3000
	},
	"tracker": {
		"maxBlobDelta": {
			"x": 40,
			"y": 40,
			"width": 50,
			"height": 50
		},
		"trackMemory": 40
	}
}
